digraph g {
	subgraph cluster_0 {
		graph [label="Step 1"]
		node [shape=circle]
		subgraph cluster_0_rn {
			graph [label="Residual network"]
			cluster_0_rn0 [label=0 color="#00AA00" fontcolor="#00AA00"]
			cluster_0_rn0 -> cluster_0_rn1 [label="[1/1]" color=black fontcolor=black]
			cluster_0_rn0 -> cluster_0_rn2 [label="[2/2]" color=black fontcolor=black]
			cluster_0_rn0 -> cluster_0_rn3 [label="[0/3]" color="#00AA00" fontcolor="#00AA00"]
			cluster_0_rn1 [label=1 color=black fontcolor=black]
			cluster_0_rn1 -> cluster_0_rn4 [label="[3/3]" color=black fontcolor=black]
			cluster_0_rn2 [label=2 color=black fontcolor=black]
			cluster_0_rn2 -> cluster_0_rn1 [label="[1/1]" color=black fontcolor=black]
			cluster_0_rn2 -> cluster_0_rn4 [label="[3/3]" color=black fontcolor=black]
			cluster_0_rn2 -> cluster_0_rn5 [label="[3/3]" color=black fontcolor=black]
			cluster_0_rn3 [label=3 color="#00AA00" fontcolor="#00AA00"]
			cluster_0_rn3 -> cluster_0_rn0 [label="[3/3]" color=black fontcolor=black]
			cluster_0_rn3 -> cluster_0_rn2 [label="[1/1]" color=black fontcolor=black]
			cluster_0_rn3 -> cluster_0_rn5 [label="[0/3]" color="#00AA00" fontcolor="#00AA00"]
			cluster_0_rn4 [label=4 color=black fontcolor=black]
			cluster_0_rn4 -> cluster_0_rn6 [label="[10/10]" color=black fontcolor=black]
			cluster_0_rn5 [label=5 color="#00AA00" fontcolor="#00AA00"]
			cluster_0_rn5 -> cluster_0_rn3 [label="[3/3]" color=black fontcolor=black]
			cluster_0_rn5 -> cluster_0_rn6 [label="[7/10]" color="#00AA00" fontcolor="#00AA00"]
			cluster_0_rn6 [label=6 color="#00AA00" fontcolor="#00AA00"]
			cluster_0_rn6 -> cluster_0_rn5 [label="[3/10]" color=black fontcolor=black]
			cluster_0_rn6 -> cluster_0_rn7 [label="[16/19]" color="#00AA00" fontcolor="#00AA00"]
			cluster_0_rn7 [label=7 color="#00AA00" fontcolor="#00AA00"]
			cluster_0_rn7 -> cluster_0_rn6 [label="[3/19]" color=black fontcolor=black]
		}
		subgraph cluster_0_fn {
			graph [label="Flow network"]
			cluster_0_fn0 [label=0 color="#7f007f" fontcolor="#7f007f"]
			cluster_0_fn0 -> cluster_0_fn1 [label="[0/1]" color="#0000ff" fontcolor="#0000ff"]
			cluster_0_fn0 -> cluster_0_fn2 [label="[0/2]" color="#0000ff" fontcolor="#0000ff"]
			cluster_0_fn0 -> cluster_0_fn3 [label="[3/3]" color="#ff0000" fontcolor="#ff0000"]
			cluster_0_fn1 [label=1 color="#0000ff" fontcolor="#0000ff"]
			cluster_0_fn1 -> cluster_0_fn4 [label="[0/3]" color="#0000ff" fontcolor="#0000ff"]
			cluster_0_fn2 [label=2 color="#0000ff" fontcolor="#0000ff"]
			cluster_0_fn2 -> cluster_0_fn1 [label="[0/1]" color="#0000ff" fontcolor="#0000ff"]
			cluster_0_fn2 -> cluster_0_fn4 [label="[0/3]" color="#0000ff" fontcolor="#0000ff"]
			cluster_0_fn2 -> cluster_0_fn5 [label="[0/3]" color="#0000ff" fontcolor="#0000ff"]
			cluster_0_fn3 [label=3 color="#ff0000" fontcolor="#ff0000"]
			cluster_0_fn3 -> cluster_0_fn2 [label="[0/1]" color="#0000ff" fontcolor="#0000ff"]
			cluster_0_fn3 -> cluster_0_fn5 [label="[3/3]" color="#ff0000" fontcolor="#ff0000"]
			cluster_0_fn4 [label=4 color="#0000ff" fontcolor="#0000ff"]
			cluster_0_fn4 -> cluster_0_fn6 [label="[0/10]" color="#0000ff" fontcolor="#0000ff"]
			cluster_0_fn5 [label=5 color="#7f007f" fontcolor="#7f007f"]
			cluster_0_fn5 -> cluster_0_fn6 [label="[3/10]" color="#4c00b2" fontcolor="#4c00b2"]
			cluster_0_fn6 [label=6 color="#2800d6" fontcolor="#2800d6"]
			cluster_0_fn6 -> cluster_0_fn7 [label="[3/19]" color="#2800d6" fontcolor="#2800d6"]
			cluster_0_fn7 [label=7 color="#0000ff" fontcolor="#0000ff"]
		}
	}
	subgraph cluster_1 {
		graph [label="Step 2"]
		node [shape=circle]
		subgraph cluster_1_rn {
			graph [label="Residual network"]
			cluster_1_rn0 [label=0 color="#00AA00" fontcolor="#00AA00"]
			cluster_1_rn0 -> cluster_1_rn1 [label="[1/1]" color=black fontcolor=black]
			cluster_1_rn0 -> cluster_1_rn2 [label="[0/2]" color="#00AA00" fontcolor="#00AA00"]
			cluster_1_rn1 [label=1 color=black fontcolor=black]
			cluster_1_rn1 -> cluster_1_rn4 [label="[3/3]" color=black fontcolor=black]
			cluster_1_rn2 [label=2 color="#00AA00" fontcolor="#00AA00"]
			cluster_1_rn2 -> cluster_1_rn0 [label="[2/2]" color=black fontcolor=black]
			cluster_1_rn2 -> cluster_1_rn1 [label="[1/1]" color=black fontcolor=black]
			cluster_1_rn2 -> cluster_1_rn4 [label="[3/3]" color=black fontcolor=black]
			cluster_1_rn2 -> cluster_1_rn5 [label="[1/3]" color="#00AA00" fontcolor="#00AA00"]
			cluster_1_rn3 [label=3 color=black fontcolor=black]
			cluster_1_rn3 -> cluster_1_rn0 [label="[3/3]" color=black fontcolor=black]
			cluster_1_rn3 -> cluster_1_rn2 [label="[1/1]" color=black fontcolor=black]
			cluster_1_rn4 [label=4 color=black fontcolor=black]
			cluster_1_rn4 -> cluster_1_rn6 [label="[10/10]" color=black fontcolor=black]
			cluster_1_rn5 [label=5 color="#00AA00" fontcolor="#00AA00"]
			cluster_1_rn5 -> cluster_1_rn2 [label="[2/3]" color=black fontcolor=black]
			cluster_1_rn5 -> cluster_1_rn3 [label="[3/3]" color=black fontcolor=black]
			cluster_1_rn5 -> cluster_1_rn6 [label="[5/10]" color="#00AA00" fontcolor="#00AA00"]
			cluster_1_rn6 [label=6 color="#00AA00" fontcolor="#00AA00"]
			cluster_1_rn6 -> cluster_1_rn5 [label="[5/10]" color=black fontcolor=black]
			cluster_1_rn6 -> cluster_1_rn7 [label="[14/19]" color="#00AA00" fontcolor="#00AA00"]
			cluster_1_rn7 [label=7 color="#00AA00" fontcolor="#00AA00"]
			cluster_1_rn7 -> cluster_1_rn6 [label="[5/19]" color=black fontcolor=black]
		}
		subgraph cluster_1_fn {
			graph [label="Flow network"]
			cluster_1_fn0 [label=0 color="#d4002a" fontcolor="#d4002a"]
			cluster_1_fn0 -> cluster_1_fn1 [label="[0/1]" color="#0000ff" fontcolor="#0000ff"]
			cluster_1_fn0 -> cluster_1_fn2 [label="[2/2]" color="#ff0000" fontcolor="#ff0000"]
			cluster_1_fn0 -> cluster_1_fn3 [label="[3/3]" color="#ff0000" fontcolor="#ff0000"]
			cluster_1_fn1 [label=1 color="#0000ff" fontcolor="#0000ff"]
			cluster_1_fn1 -> cluster_1_fn4 [label="[0/3]" color="#0000ff" fontcolor="#0000ff"]
			cluster_1_fn2 [label=2 color="#aa0055" fontcolor="#aa0055"]
			cluster_1_fn2 -> cluster_1_fn1 [label="[0/1]" color="#0000ff" fontcolor="#0000ff"]
			cluster_1_fn2 -> cluster_1_fn4 [label="[0/3]" color="#0000ff" fontcolor="#0000ff"]
			cluster_1_fn2 -> cluster_1_fn5 [label="[2/3]" color="#aa0055" fontcolor="#aa0055"]
			cluster_1_fn3 [label=3 color="#ff0000" fontcolor="#ff0000"]
			cluster_1_fn3 -> cluster_1_fn2 [label="[0/1]" color="#0000ff" fontcolor="#0000ff"]
			cluster_1_fn3 -> cluster_1_fn5 [label="[3/3]" color="#ff0000" fontcolor="#ff0000"]
			cluster_1_fn4 [label=4 color="#0000ff" fontcolor="#0000ff"]
			cluster_1_fn4 -> cluster_1_fn6 [label="[0/10]" color="#0000ff" fontcolor="#0000ff"]
			cluster_1_fn5 [label=5 color="#d4002a" fontcolor="#d4002a"]
			cluster_1_fn5 -> cluster_1_fn6 [label="[5/10]" color="#7f007f" fontcolor="#7f007f"]
			cluster_1_fn6 [label=6 color="#4300bb" fontcolor="#4300bb"]
			cluster_1_fn6 -> cluster_1_fn7 [label="[5/19]" color="#4300bb" fontcolor="#4300bb"]
			cluster_1_fn7 [label=7 color="#0000ff" fontcolor="#0000ff"]
		}
	}
	subgraph cluster_2 {
		graph [label="Step 3"]
		node [shape=circle]
		subgraph cluster_2_rn {
			graph [label="Residual network"]
			cluster_2_rn0 [label=0 color="#00AA00" fontcolor="#00AA00"]
			cluster_2_rn0 -> cluster_2_rn1 [label="[0/1]" color="#00AA00" fontcolor="#00AA00"]
			cluster_2_rn1 [label=1 color="#00AA00" fontcolor="#00AA00"]
			cluster_2_rn1 -> cluster_2_rn0 [label="[1/1]" color=black fontcolor=black]
			cluster_2_rn1 -> cluster_2_rn4 [label="[2/3]" color="#00AA00" fontcolor="#00AA00"]
			cluster_2_rn2 [label=2 color=black fontcolor=black]
			cluster_2_rn2 -> cluster_2_rn0 [label="[2/2]" color=black fontcolor=black]
			cluster_2_rn2 -> cluster_2_rn1 [label="[1/1]" color=black fontcolor=black]
			cluster_2_rn2 -> cluster_2_rn4 [label="[3/3]" color=black fontcolor=black]
			cluster_2_rn2 -> cluster_2_rn5 [label="[1/3]" color=black fontcolor=black]
			cluster_2_rn3 [label=3 color=black fontcolor=black]
			cluster_2_rn3 -> cluster_2_rn0 [label="[3/3]" color=black fontcolor=black]
			cluster_2_rn3 -> cluster_2_rn2 [label="[1/1]" color=black fontcolor=black]
			cluster_2_rn4 [label=4 color="#00AA00" fontcolor="#00AA00"]
			cluster_2_rn4 -> cluster_2_rn1 [label="[1/3]" color=black fontcolor=black]
			cluster_2_rn4 -> cluster_2_rn6 [label="[9/10]" color="#00AA00" fontcolor="#00AA00"]
			cluster_2_rn5 [label=5 color=black fontcolor=black]
			cluster_2_rn5 -> cluster_2_rn2 [label="[2/3]" color=black fontcolor=black]
			cluster_2_rn5 -> cluster_2_rn3 [label="[3/3]" color=black fontcolor=black]
			cluster_2_rn5 -> cluster_2_rn6 [label="[5/10]" color=black fontcolor=black]
			cluster_2_rn6 [label=6 color="#00AA00" fontcolor="#00AA00"]
			cluster_2_rn6 -> cluster_2_rn4 [label="[1/10]" color=black fontcolor=black]
			cluster_2_rn6 -> cluster_2_rn5 [label="[5/10]" color=black fontcolor=black]
			cluster_2_rn6 -> cluster_2_rn7 [label="[13/19]" color="#00AA00" fontcolor="#00AA00"]
			cluster_2_rn7 [label=7 color="#00AA00" fontcolor="#00AA00"]
			cluster_2_rn7 -> cluster_2_rn6 [label="[6/19]" color=black fontcolor=black]
		}
		subgraph cluster_2_fn {
			graph [label="Flow network"]
			cluster_2_fn0 [label=0 color="#ff0000" fontcolor="#ff0000"]
			cluster_2_fn0 -> cluster_2_fn1 [label="[1/1]" color="#ff0000" fontcolor="#ff0000"]
			cluster_2_fn0 -> cluster_2_fn2 [label="[2/2]" color="#ff0000" fontcolor="#ff0000"]
			cluster_2_fn0 -> cluster_2_fn3 [label="[3/3]" color="#ff0000" fontcolor="#ff0000"]
			cluster_2_fn1 [label=1 color="#7f007f" fontcolor="#7f007f"]
			cluster_2_fn1 -> cluster_2_fn4 [label="[1/3]" color="#5500aa" fontcolor="#5500aa"]
			cluster_2_fn2 [label=2 color="#aa0055" fontcolor="#aa0055"]
			cluster_2_fn2 -> cluster_2_fn1 [label="[0/1]" color="#0000ff" fontcolor="#0000ff"]
			cluster_2_fn2 -> cluster_2_fn4 [label="[0/3]" color="#0000ff" fontcolor="#0000ff"]
			cluster_2_fn2 -> cluster_2_fn5 [label="[2/3]" color="#aa0055" fontcolor="#aa0055"]
			cluster_2_fn3 [label=3 color="#ff0000" fontcolor="#ff0000"]
			cluster_2_fn3 -> cluster_2_fn2 [label="[0/1]" color="#0000ff" fontcolor="#0000ff"]
			cluster_2_fn3 -> cluster_2_fn5 [label="[3/3]" color="#ff0000" fontcolor="#ff0000"]
			cluster_2_fn4 [label=4 color="#2a00d4" fontcolor="#2a00d4"]
			cluster_2_fn4 -> cluster_2_fn6 [label="[1/10]" color="#1900e5" fontcolor="#1900e5"]
			cluster_2_fn5 [label=5 color="#d4002a" fontcolor="#d4002a"]
			cluster_2_fn5 -> cluster_2_fn6 [label="[5/10]" color="#7f007f" fontcolor="#7f007f"]
			cluster_2_fn6 [label=6 color="#5000ae" fontcolor="#5000ae"]
			cluster_2_fn6 -> cluster_2_fn7 [label="[6/19]" color="#5000ae" fontcolor="#5000ae"]
			cluster_2_fn7 [label=7 color="#0000ff" fontcolor="#0000ff"]
		}
	}
	subgraph cluster_3 {
		graph [label=Result]
		node [shape=circle]
		subgraph cluster_3_rn {
			graph [label="Residual network"]
			cluster_3_rn0 [label=0 color=black fontcolor=black]
			cluster_3_rn1 [label=1 color=black fontcolor=black]
			cluster_3_rn1 -> cluster_3_rn0 [label="[1/1]" color=black fontcolor=black]
			cluster_3_rn1 -> cluster_3_rn4 [label="[2/3]" color=black fontcolor=black]
			cluster_3_rn2 [label=2 color=black fontcolor=black]
			cluster_3_rn2 -> cluster_3_rn0 [label="[2/2]" color=black fontcolor=black]
			cluster_3_rn2 -> cluster_3_rn1 [label="[1/1]" color=black fontcolor=black]
			cluster_3_rn2 -> cluster_3_rn4 [label="[3/3]" color=black fontcolor=black]
			cluster_3_rn2 -> cluster_3_rn5 [label="[1/3]" color=black fontcolor=black]
			cluster_3_rn3 [label=3 color=black fontcolor=black]
			cluster_3_rn3 -> cluster_3_rn0 [label="[3/3]" color=black fontcolor=black]
			cluster_3_rn3 -> cluster_3_rn2 [label="[1/1]" color=black fontcolor=black]
			cluster_3_rn4 [label=4 color=black fontcolor=black]
			cluster_3_rn4 -> cluster_3_rn1 [label="[1/3]" color=black fontcolor=black]
			cluster_3_rn4 -> cluster_3_rn6 [label="[9/10]" color=black fontcolor=black]
			cluster_3_rn5 [label=5 color=black fontcolor=black]
			cluster_3_rn5 -> cluster_3_rn2 [label="[2/3]" color=black fontcolor=black]
			cluster_3_rn5 -> cluster_3_rn3 [label="[3/3]" color=black fontcolor=black]
			cluster_3_rn5 -> cluster_3_rn6 [label="[5/10]" color=black fontcolor=black]
			cluster_3_rn6 [label=6 color=black fontcolor=black]
			cluster_3_rn6 -> cluster_3_rn4 [label="[1/10]" color=black fontcolor=black]
			cluster_3_rn6 -> cluster_3_rn5 [label="[5/10]" color=black fontcolor=black]
			cluster_3_rn6 -> cluster_3_rn7 [label="[13/19]" color=black fontcolor=black]
			cluster_3_rn7 [label=7 color=black fontcolor=black]
			cluster_3_rn7 -> cluster_3_rn6 [label="[6/19]" color=black fontcolor=black]
		}
		subgraph cluster_3_fn {
			graph [label="Flow network"]
			cluster_3_fn0 [label=0 color="#ff0000" fontcolor="#ff0000"]
			cluster_3_fn0 -> cluster_3_fn1 [label="[1/1]" color="#ff0000" fontcolor="#ff0000"]
			cluster_3_fn0 -> cluster_3_fn2 [label="[2/2]" color="#ff0000" fontcolor="#ff0000"]
			cluster_3_fn0 -> cluster_3_fn3 [label="[3/3]" color="#ff0000" fontcolor="#ff0000"]
			cluster_3_fn1 [label=1 color="#7f007f" fontcolor="#7f007f"]
			cluster_3_fn1 -> cluster_3_fn4 [label="[1/3]" color="#5500aa" fontcolor="#5500aa"]
			cluster_3_fn2 [label=2 color="#aa0055" fontcolor="#aa0055"]
			cluster_3_fn2 -> cluster_3_fn1 [label="[0/1]" color="#0000ff" fontcolor="#0000ff"]
			cluster_3_fn2 -> cluster_3_fn4 [label="[0/3]" color="#0000ff" fontcolor="#0000ff"]
			cluster_3_fn2 -> cluster_3_fn5 [label="[2/3]" color="#aa0055" fontcolor="#aa0055"]
			cluster_3_fn3 [label=3 color="#ff0000" fontcolor="#ff0000"]
			cluster_3_fn3 -> cluster_3_fn2 [label="[0/1]" color="#0000ff" fontcolor="#0000ff"]
			cluster_3_fn3 -> cluster_3_fn5 [label="[3/3]" color="#ff0000" fontcolor="#ff0000"]
			cluster_3_fn4 [label=4 color="#2a00d4" fontcolor="#2a00d4"]
			cluster_3_fn4 -> cluster_3_fn6 [label="[1/10]" color="#1900e5" fontcolor="#1900e5"]
			cluster_3_fn5 [label=5 color="#d4002a" fontcolor="#d4002a"]
			cluster_3_fn5 -> cluster_3_fn6 [label="[5/10]" color="#7f007f" fontcolor="#7f007f"]
			cluster_3_fn6 [label=6 color="#5000ae" fontcolor="#5000ae"]
			cluster_3_fn6 -> cluster_3_fn7 [label="[6/19]" color="#5000ae" fontcolor="#5000ae"]
			cluster_3_fn7 [label=7 color="#0000ff" fontcolor="#0000ff"]
		}
	}
}
